{
    "KDE-KIO-Protocols": {
        "file": {
            "Class": ":local", 
            "ExtraNames": [], 
            "Icon": "folder", 
            "X-DocPath": "kioworker6/file/index.html",
            "deleteRecursive": true, 
            "deleting": true, 
            "input": "none", 
            "linking": true, 
            "listing": [
                "Name", 
                "Type", 
                "Size", 
                "Date", 
                "AccessDate", 
                "Access", 
                "Owner", 
                "Group", 
                "Link"
            ], 
            "makedir": true, 
            "maxInstances": 5, 
            "moving": true, 
            "opening": true, 
            "truncating": true,
            "output": "filesystem", 
            "protocol": "file", 
            "reading": true, 
            "writing": true
        }
    }
}
